%!PS-Adobe-3.0 EPSF-3.0
%%Creator: cairo 1.16.0 (https://cairographics.org)
%%CreationDate: Fri Jun  9 06:55:35 2023
%%Pages: 1
%%DocumentData: Clean7Bit
%%LanguageLevel: 2
%%BoundingBox: 2 0 998 146
%%EndComments
%%BeginProlog
50 dict begin
/q { gsave } bind def
/Q { grestore } bind def
/cm { 6 array astore concat } bind def
/w { setlinewidth } bind def
/J { setlinecap } bind def
/j { setlinejoin } bind def
/M { setmiterlimit } bind def
/d { setdash } bind def
/m { moveto } bind def
/l { lineto } bind def
/c { curveto } bind def
/h { closepath } bind def
/re { exch dup neg 3 1 roll 5 3 roll moveto 0 rlineto
      0 exch rlineto 0 rlineto closepath } bind def
/S { stroke } bind def
/f { fill } bind def
/f* { eofill } bind def
/n { newpath } bind def
/W { clip } bind def
/W* { eoclip } bind def
/BT { } bind def
/ET { } bind def
/BDC { mark 3 1 roll /BDC pdfmark } bind def
/EMC { mark /EMC pdfmark } bind def
/cairo_store_point { /cairo_point_y exch def /cairo_point_x exch def } def
/Tj { show currentpoint cairo_store_point } bind def
/TJ {
  {
    dup
    type /stringtype eq
    { show } { -0.001 mul 0 cairo_font_matrix dtransform rmoveto } ifelse
  } forall
  currentpoint cairo_store_point
} bind def
/cairo_selectfont { cairo_font_matrix aload pop pop pop 0 0 6 array astore
    cairo_font exch selectfont cairo_point_x cairo_point_y moveto } bind def
/Tf { pop /cairo_font exch def /cairo_font_matrix where
      { pop cairo_selectfont } if } bind def
/Td { matrix translate cairo_font_matrix matrix concatmatrix dup
      /cairo_font_matrix exch def dup 4 get exch 5 get cairo_store_point
      /cairo_font where { pop cairo_selectfont } if } bind def
/Tm { 2 copy 8 2 roll 6 array astore /cairo_font_matrix exch def
      cairo_store_point /cairo_font where { pop cairo_selectfont } if } bind def
/g { setgray } bind def
/rg { setrgbcolor } bind def
/d1 { setcachedevice } bind def
/cairo_data_source {
  CairoDataIndex CairoData length lt
    { CairoData CairoDataIndex get /CairoDataIndex CairoDataIndex 1 add def }
    { () } ifelse
} def
/cairo_flush_ascii85_file { cairo_ascii85_file status { cairo_ascii85_file flushfile } if } def
/cairo_image { image cairo_flush_ascii85_file } def
/cairo_imagemask { imagemask cairo_flush_ascii85_file } def
%%EndProlog
%%BeginSetup
%%EndSetup
%%Page: 1 1
%%BeginPageSetup
%%PageBoundingBox: 2 0 998 146
%%EndPageSetup
q 2 0 996 146 rectclip
1 0 0 -1 0 146 cm q
Q q
2.273 0.016 814.988 145.984 re W n
0.313726 0.627451 0.376471 rg
94.422 143.883 m 34.723 143.883 l 34.723 139.59 l 56.195 133.148 l 56.195
 12.242 l 18.402 12.242 l 6.16 43.809 l 2.293 43.809 l 2.293 2.148 l 126.852
 2.148 l 126.852 43.809 l 122.984 43.809 l 110.746 12.242 l 72.949 12.242
 l 72.949 133.148 l 94.422 139.59 l h
221.344 146.031 m 211.32 146.031 202.043 144.199 193.512 140.535 c 185.008
 136.898 177.633 131.816 171.391 125.285 c 165.176 118.785 160.309 111.098
 156.789 102.223 c 153.293 93.348 151.547 83.609 151.547 73.016 c 151.547
 62.422 153.293 52.688 156.789 43.809 c 160.309 34.934 165.176 27.23 171.391
 20.703 c 177.633 14.203 185.008 9.121 193.512 5.453 c 202.043 1.816 211.32
 0 221.344 0 c 231.363 0 240.625 1.816 249.133 5.453 c 257.664 9.121 265.078
 14.203 271.379 20.703 c 277.68 27.23 282.574 34.934 286.07 43.809 c 289.59
 52.688 291.352 62.422 291.352 73.016 c 291.352 83.609 289.59 93.348 286.07
 102.223 c 282.574 111.098 277.68 118.785 271.379 125.285 c 265.078 131.816
 257.664 136.898 249.133 140.535 c 240.625 144.199 231.363 146.031 221.344
 146.031 c h
225.852 137.012 m 235.301 137.012 243.605 134.648 250.762 129.926 c 257.922
 125.199 263.504 118.543 267.516 109.953 c 271.523 101.363 273.527 91.27
 273.527 79.672 c 273.527 65.355 271.023 52.902 266.012 42.305 c 261 31.711
 254.27 23.48 245.824 17.609 c 237.375 11.738 228 8.805 217.691 8.805 c 
208.242 8.805 199.867 11.125 192.566 15.762 c 185.262 20.43 179.566 27.059
 175.473 35.648 c 171.406 44.238 169.371 54.332 169.371 65.93 c 169.371 
80.246 171.879 92.73 176.887 103.383 c 181.898 114.062 188.656 122.336 197.16
 128.207 c 205.695 134.078 215.258 137.012 225.852 137.012 c h
370.379 143.883 m 320.344 143.883 l 320.344 139.59 l 337.523 133.148 l 
337.523 12.887 l 320.344 6.441 l 320.344 2.148 l 370.379 2.148 l 385.414
 2.148 397.254 5.254 405.902 11.469 c 414.578 17.711 418.914 26.27 418.914
 37.152 c 418.914 45.457 416.152 52.715 410.625 58.93 c 405.129 65.172 397.941
 69.793 389.062 72.801 c 430.082 134.004 l 444.254 139.59 l 444.254 143.883
 l 415.906 143.883 l 373.816 77.957 l 354.273 77.957 l 354.273 132.934 l
 370.379 139.59 l h
368.234 12.242 m 354.273 12.242 l 354.273 67.863 l 369.52 67.863 l 378.543
 67.863 386.016 65.215 391.941 59.914 c 397.898 54.617 400.875 47.961 400.875
 39.945 c 400.875 31.355 397.941 24.582 392.07 19.629 c 386.199 14.703 378.254
 12.242 368.234 12.242 c h
507.137 143.883 m 457.098 143.883 l 457.098 139.59 l 474.277 133.148 l 
474.277 12.887 l 457.098 6.441 l 457.098 2.148 l 507.137 2.148 l 522.168
 2.148 534.023 5.254 542.699 11.469 c 551.344 17.711 555.668 26.27 555.668
 37.152 c 555.668 45.457 552.922 52.715 547.422 58.93 c 541.895 65.172 534.695
 69.793 525.82 72.801 c 566.836 134.004 l 581.012 139.59 l 581.012 143.883
 l 552.664 143.883 l 510.57 77.957 l 491.027 77.957 l 491.027 132.934 l 
507.137 139.59 l h
504.988 12.242 m 491.027 12.242 l 491.027 67.863 l 506.277 67.863 l 515.297
 67.863 522.785 65.215 528.738 59.914 c 534.668 54.617 537.629 47.961 537.629
 39.945 c 537.629 31.355 534.695 24.582 528.824 19.629 c 522.957 14.703 
515.008 12.242 504.988 12.242 c h
701.27 143.883 m 593.895 143.883 l 593.895 139.59 l 610.859 133.148 l 610.859
 12.887 l 593.895 6.441 l 593.895 2.148 l 695.258 2.148 l 695.258 38.227
 l 691.609 38.227 l 680.012 12.242 l 627.609 12.242 l 627.609 65.715 l 665.191
 65.715 l 673.781 47.891 l 677.434 47.891 l 677.434 93.203 l 673.781 93.203
 l 665.191 75.809 l 627.609 75.809 l 627.609 133.789 l 686.023 133.789 l
 697.621 105.66 l 701.27 105.66 l h
772.141 146.031 m 763.551 146.031 756.25 145.203 750.234 143.539 c 744.223
 141.91 737.922 139.445 731.336 136.152 c 729.188 101.793 l 732.84 101.793
 l 744.008 126.488 l 749.16 130.5 754.102 133.32 758.824 134.949 c 763.551
 136.613 768.348 137.441 773.215 137.441 c 782.09 137.441 788.961 135.078
 793.828 130.355 c 798.699 125.629 801.133 119.117 801.133 110.812 c 801.133
 104.371 799.629 99.289 796.621 95.566 c 793.613 91.844 789.348 88.551 783.824
 85.688 c 778.324 82.824 771.855 79.531 764.41 75.809 c 757.824 72.516 752.312
 69.223 747.871 65.93 c 743.434 62.637 740.027 58.844 737.652 54.547 c 735.301
 50.254 734.129 44.883 734.129 38.441 c 734.129 33.715 735.273 29.062 737.566
 24.48 c 739.855 19.902 742.961 15.777 746.887 12.113 c 750.836 8.477 755.273
 5.539 760.199 3.309 c 765.152 1.102 770.277 0 775.574 0 c 782.16 0 788.133
 0.789 793.484 2.363 c 798.871 3.938 804.426 6.156 810.152 9.02 c 812.297
 42.52 l 808.648 42.52 l 799.199 18.898 l 794.762 15.176 790.707 12.555 
787.043 11.039 c 783.406 9.551 779.227 8.805 774.504 8.805 c 767.059 8.805
 761.188 11.051 756.891 15.547 c 752.598 20.07 750.449 25.699 750.449 32.426
 c 750.449 37.438 751.48 41.691 753.543 45.184 c 755.633 48.707 758.824 
51.926 763.121 54.848 c 767.414 57.797 772.855 60.848 779.441 63.996 c 788.031
 68.148 795.117 72.086 800.703 75.809 c 806.285 79.531 810.438 83.781 813.156
 88.562 c 815.879 93.375 817.238 99.43 817.238 106.73 c 817.238 112.887 
815.879 118.398 813.156 123.27 c 810.438 128.137 806.859 132.246 802.422
 135.594 c 797.98 138.973 793.113 141.551 787.816 143.324 c 782.52 145.129
 777.293 146.031 772.141 146.031 c h
772.141 146.031 m f
Q q
852 27 145.77 79 re W n
0.313726 0.627451 0.376471 rg
989.105 27.363 m 964.766 27.363 l 960.285 27.363 956.648 30.996 956.652
 35.477 c 956.648 39.961 960.281 43.59 964.766 43.59 c 969.52 43.59 l 960.332
 52.777 l 951.887 61.227 942.254 64.828 928.113 64.832 c 908.32 64.848 l
 889.727 64.848 872.641 73.645 861.023 85.262 c 854.664 91.621 l 851.5 94.789
 851.5 99.926 854.664 103.094 c 857.836 106.262 862.973 106.262 866.137 
103.094 c 872.496 96.738 l 880.941 88.289 894.188 81.074 908.328 81.07 c
 928.121 81.059 l 946.711 81.055 960.188 75.875 971.809 64.254 c 980.992
 55.066 l 980.992 59.82 l 980.992 64.301 984.625 67.934 989.105 67.934 c
 991.348 67.934 993.375 67.023 994.84 65.559 c 996.309 64.09 997.219 62.059
 997.219 59.82 c 997.219 35.477 l 997.219 30.996 993.586 27.363 989.105 
27.363 c h
989.105 27.363 m f
Q q
852 98 145.77 48 re W n
0.313726 0.627451 0.376471 rg
989.656 98.977 m 909.035 98.977 l 902.539 98.977 896.656 101.609 892.398
 105.867 c 888.395 109.871 858.035 136.766 854.266 140.109 c 850.969 143.113
 851.355 145.848 855.816 145.848 c 929.539 145.848 l 930.09 145.965 930.66
 146.031 931.242 146.031 c 989.656 146.031 l 994.137 146.031 997.77 142.402
 997.77 137.918 c 997.77 107.09 l 997.77 102.609 994.137 98.977 989.656 
98.977 c h
989.656 98.977 m f
Q q
851.738 0.016 109.262 47.984 re W n
0.313726 0.627451 0.376471 rg
859.848 47.055 m 903.152 47.055 l 909.648 47.055 915.531 44.422 919.789
 40.164 c 923.793 36.16 954.152 9.266 957.922 5.922 c 961.219 2.918 960.832
 0.184 956.367 0.184 c 859.848 0 l 855.367 0 851.738 3.633 851.738 8.113
 c 851.738 38.941 l 851.738 43.422 855.367 47.055 859.848 47.055 c h
859.848 47.055 m f
Q Q
showpage
%%Trailer
end
%%EOF
