%!PS-Adobe-3.0 EPSF-3.0
%%Creator: cairo 1.16.0 (https://cairographics.org)
%%CreationDate: Fri Jun  9 06:55:35 2023
%%Pages: 1
%%DocumentData: Clean7Bit
%%LanguageLevel: 2
%%BoundingBox: 0 0 1000 1000
%%EndComments
%%BeginProlog
50 dict begin
/q { gsave } bind def
/Q { grestore } bind def
/cm { 6 array astore concat } bind def
/w { setlinewidth } bind def
/J { setlinecap } bind def
/j { setlinejoin } bind def
/M { setmiterlimit } bind def
/d { setdash } bind def
/m { moveto } bind def
/l { lineto } bind def
/c { curveto } bind def
/h { closepath } bind def
/re { exch dup neg 3 1 roll 5 3 roll moveto 0 rlineto
      0 exch rlineto 0 rlineto closepath } bind def
/S { stroke } bind def
/f { fill } bind def
/f* { eofill } bind def
/n { newpath } bind def
/W { clip } bind def
/W* { eoclip } bind def
/BT { } bind def
/ET { } bind def
/BDC { mark 3 1 roll /BDC pdfmark } bind def
/EMC { mark /EMC pdfmark } bind def
/cairo_store_point { /cairo_point_y exch def /cairo_point_x exch def } def
/Tj { show currentpoint cairo_store_point } bind def
/TJ {
  {
    dup
    type /stringtype eq
    { show } { -0.001 mul 0 cairo_font_matrix dtransform rmoveto } ifelse
  } forall
  currentpoint cairo_store_point
} bind def
/cairo_selectfont { cairo_font_matrix aload pop pop pop 0 0 6 array astore
    cairo_font exch selectfont cairo_point_x cairo_point_y moveto } bind def
/Tf { pop /cairo_font exch def /cairo_font_matrix where
      { pop cairo_selectfont } if } bind def
/Td { matrix translate cairo_font_matrix matrix concatmatrix dup
      /cairo_font_matrix exch def dup 4 get exch 5 get cairo_store_point
      /cairo_font where { pop cairo_selectfont } if } bind def
/Tm { 2 copy 8 2 roll 6 array astore /cairo_font_matrix exch def
      cairo_store_point /cairo_font where { pop cairo_selectfont } if } bind def
/g { setgray } bind def
/rg { setrgbcolor } bind def
/d1 { setcachedevice } bind def
/cairo_data_source {
  CairoDataIndex CairoData length lt
    { CairoData CairoDataIndex get /CairoDataIndex CairoDataIndex 1 add def }
    { () } ifelse
} def
/cairo_flush_ascii85_file { cairo_ascii85_file status { cairo_ascii85_file flushfile } if } def
/cairo_image { image cairo_flush_ascii85_file } def
/cairo_imagemask { imagemask cairo_flush_ascii85_file } def
%%EndProlog
%%BeginSetup
%%EndSetup
%%Page: 1 1
%%BeginPageSetup
%%PageBoundingBox: 0 0 1000 1000
%%EndPageSetup
q 0 0 1000 1000 rectclip
1 0 0 -1 0 1000 cm q
0 g
0 0 1000 1000 rectfill
Q q
151.59 448.91 570.492 102.199 re W n
1 g
216.098 549.617 m 174.305 549.617 l 174.305 546.613 l 189.34 542.102 l 
189.34 457.469 l 162.879 457.469 l 154.312 479.566 l 151.605 479.566 l 151.605
 450.402 l 238.797 450.402 l 238.797 479.566 l 236.09 479.566 l 227.52 457.469
 l 201.062 457.469 l 201.062 542.102 l 216.098 546.613 l h
304.938 551.121 m 297.926 551.121 291.43 549.84 285.457 547.273 c 279.504
 544.727 274.344 541.172 269.973 536.602 c 265.625 532.051 262.215 526.668
 259.75 520.457 c 257.305 514.242 256.082 507.426 256.082 500.012 c 256.082
 492.594 257.305 485.781 259.75 479.566 c 262.215 473.352 265.625 467.961
 269.973 463.391 c 274.344 458.84 279.504 455.285 285.457 452.719 c 291.43
 450.172 297.926 448.898 304.938 448.898 c 311.953 448.898 318.438 450.172
 324.391 452.719 c 330.363 455.285 335.555 458.84 339.965 463.391 c 344.375
 467.961 347.801 473.352 350.246 479.566 c 352.715 485.781 353.945 492.594
 353.945 500.012 c 353.945 507.426 352.715 514.242 350.246 520.457 c 347.801
 526.668 344.375 532.051 339.965 536.602 c 335.555 541.172 330.363 544.727
 324.391 547.273 c 318.438 549.84 311.953 551.121 304.938 551.121 c h
308.098 544.809 m 314.711 544.809 320.523 543.156 325.535 539.848 c 330.547
 536.539 334.453 531.879 337.258 525.867 c 340.066 519.855 341.469 512.789
 341.469 504.672 c 341.469 494.648 339.715 485.93 336.207 478.516 c 332.699
 471.098 327.988 465.336 322.078 461.227 c 316.164 457.117 309.598 455.062
 302.383 455.062 c 295.77 455.062 289.906 456.688 284.797 459.934 c 279.684
 463.199 275.695 467.84 272.828 473.855 c 269.984 479.867 268.559 486.934
 268.559 495.051 c 268.559 505.07 270.312 513.812 273.82 521.266 c 277.328
 528.742 282.059 534.535 288.012 538.645 c 293.984 542.754 300.68 544.809
 308.098 544.809 c h
409.266 549.617 m 374.238 549.617 l 374.238 546.613 l 386.266 542.102 l
 386.266 457.918 l 374.238 453.41 l 374.238 450.402 l 409.266 450.402 l 
419.789 450.402 428.078 452.578 434.129 456.926 c 440.203 461.297 443.238
 467.289 443.238 474.906 c 443.238 480.719 441.305 485.801 437.438 490.148
 c 433.59 494.52 428.559 497.758 422.344 499.859 c 451.059 542.703 l 460.98
 546.613 l 460.98 549.617 l 441.137 549.617 l 411.672 503.469 l 397.992 
503.469 l 397.992 541.953 l 409.266 546.613 l h
407.762 457.469 m 397.992 457.469 l 397.992 496.402 l 408.664 496.402 l
 414.98 496.402 420.211 494.551 424.359 490.84 c 428.527 487.133 430.613
 482.473 430.613 476.859 c 430.613 470.848 428.559 466.109 424.449 462.641
 c 420.34 459.191 414.777 457.469 407.762 457.469 c h
504.996 549.617 m 469.969 549.617 l 469.969 546.613 l 481.996 542.102 l
 481.996 457.918 l 469.969 453.41 l 469.969 450.402 l 504.996 450.402 l 
515.516 450.402 523.816 452.578 529.887 456.926 c 535.941 461.297 538.969
 467.289 538.969 474.906 c 538.969 480.719 537.043 485.801 533.195 490.148
 c 529.328 494.52 524.285 497.758 518.074 499.859 c 546.785 542.703 l 556.707
 546.613 l 556.707 549.617 l 536.863 549.617 l 507.398 503.469 l 493.719
 503.469 l 493.719 541.953 l 504.996 546.613 l h
503.492 457.469 m 493.719 457.469 l 493.719 496.402 l 504.395 496.402 l
 510.707 496.402 515.949 494.551 520.117 490.84 c 524.266 487.133 526.34
 482.473 526.34 476.859 c 526.34 470.848 524.285 466.109 520.176 462.641
 c 516.07 459.191 510.508 457.469 503.492 457.469 c h
640.891 549.617 m 565.727 549.617 l 565.727 546.613 l 577.602 542.102 l
 577.602 457.918 l 565.727 453.41 l 565.727 450.402 l 636.68 450.402 l 636.68
 475.66 l 634.125 475.66 l 626.008 457.469 l 589.328 457.469 l 589.328 494.898
 l 615.637 494.898 l 621.648 482.422 l 624.203 482.422 l 624.203 514.141
 l 621.648 514.141 l 615.637 501.965 l 589.328 501.965 l 589.328 542.555
 l 630.219 542.555 l 638.336 522.859 l 640.891 522.859 l h
690.496 551.121 m 684.484 551.121 679.375 550.543 675.164 549.379 c 670.957
 548.234 666.547 546.512 661.938 544.207 c 660.434 520.156 l 662.988 520.156
 l 670.805 537.441 l 674.414 540.25 677.871 542.223 681.176 543.367 c 684.484
 544.527 687.844 545.109 691.25 545.109 c 697.465 545.109 702.273 543.457
 705.68 540.148 c 709.09 536.84 710.793 532.281 710.793 526.469 c 710.793
 521.957 709.738 518.402 707.637 515.797 c 705.531 513.191 702.543 510.887
 698.676 508.879 c 694.828 506.875 690.297 504.57 685.086 501.965 c 680.477
 499.66 676.617 497.355 673.512 495.051 c 670.402 492.746 668.02 490.09 
666.355 487.082 c 664.711 484.078 663.891 480.316 663.891 475.809 c 663.891
 472.5 664.691 469.246 666.297 466.039 c 667.898 462.832 670.074 459.945
 672.82 457.379 c 675.586 454.832 678.691 452.777 682.141 451.215 c 685.605
 449.672 689.195 448.898 692.902 448.898 c 697.512 448.898 701.691 449.453
 705.441 450.555 c 709.207 451.656 713.098 453.211 717.105 455.215 c 718.609
 478.664 l 716.055 478.664 l 709.438 462.129 l 706.332 459.523 703.496 457.688
 700.93 456.625 c 698.387 455.586 695.457 455.062 692.152 455.062 c 686.941
 455.062 682.832 456.637 679.824 459.785 c 676.816 462.949 675.316 466.891
 675.316 471.598 c 675.316 475.105 676.035 478.082 677.48 480.527 c 678.941
 482.996 681.176 485.25 684.184 487.293 c 687.191 489.359 691 491.492 695.609
 493.699 c 701.621 496.605 706.582 499.359 710.492 501.965 c 714.398 504.57
 717.305 507.547 719.211 510.895 c 721.113 514.262 722.066 518.5 722.066
 523.613 c 722.066 527.922 721.113 531.781 719.211 535.188 c 717.305 538.594
 714.801 541.473 711.695 543.816 c 708.586 546.18 705.18 547.984 701.473
 549.227 c 697.766 550.492 694.105 551.121 690.496 551.121 c h
690.496 551.121 m f
Q q
746.215 468 102.223 55 re W n
1 g
842.371 468.055 m 825.336 468.055 l 822.199 468.055 819.656 470.598 819.656
 473.734 c 819.656 476.871 822.199 479.414 825.336 479.414 c 828.664 479.414
 l 822.234 485.844 l 816.32 491.758 809.578 494.281 799.68 494.281 c 785.824
 494.293 l 772.809 494.293 760.848 500.449 752.715 508.586 c 748.266 513.035
 l 746.047 515.25 746.047 518.848 748.266 521.062 c 750.484 523.281 754.078
 523.281 756.297 521.062 c 760.746 516.617 l 766.66 510.703 775.934 505.652
 785.828 505.652 c 799.684 505.641 l 812.699 505.637 822.133 502.012 830.266
 493.879 c 836.695 487.445 l 836.695 490.773 l 836.695 493.91 839.238 496.453
 842.375 496.453 c 843.941 496.453 845.363 495.816 846.391 494.789 c 847.418
 493.762 848.055 492.344 848.055 490.773 c 848.055 473.734 l 848.051 470.598
 845.512 468.055 842.371 468.055 c h
842.371 468.055 m f
Q q
746.215 518 102.223 33.109 re W n
1 g
842.758 518.184 m 786.324 518.184 l 781.777 518.184 777.66 520.027 774.68
 523.008 c 771.875 525.812 750.625 544.637 747.988 546.977 c 745.676 549.082
 745.949 550.992 749.07 550.992 c 800.68 550.992 l 801.062 551.074 801.461
 551.121 801.871 551.121 c 842.758 551.121 l 845.895 551.121 848.438 548.582
 848.438 545.441 c 848.438 523.863 l 848.438 520.727 845.895 518.184 842.758
 518.184 c h
842.758 518.184 m f
Q q
746.215 448.91 76.785 33.09 re W n
1 g
751.895 481.84 m 782.207 481.84 l 786.754 481.84 790.871 479.996 793.852
 477.016 c 796.656 474.211 817.906 455.387 820.543 453.047 c 822.855 450.941
 822.582 449.031 819.457 449.031 c 751.895 448.898 l 748.758 448.898 746.215
 451.441 746.215 454.578 c 746.215 476.16 l 746.215 479.297 748.758 481.84
 751.895 481.84 c h
751.895 481.84 m f
Q Q
showpage
%%Trailer
end
%%EOF
